Year-3/3tb4/lab1/lab1_final/lab1/simulation/qsim/lab1part1.msim.vcd
$comment
	File created using the following command:
		vcd file lab1part1.msim.vcd -direction
$end
$date
	Thu Feb 02 16:14:35 2023
$end
$version
	ModelSim Version 10.5b
$end
$timescale
	1ps
$end

$scope module four_bit_counter_vlg_vec_tst $end
$var reg 1 ! clk $end
$var reg 1 " enable $end
$var reg 1 # low_reset $end
$var wire 1 $ out [3] $end
$var wire 1 % out [2] $end
$var wire 1 & out [1] $end
$var wire 1 ' out [0] $end

$scope module i1 $end
$var wire 1 ( gnd $end
$var wire 1 ) vcc $end
$var wire 1 * unknown $end
$var tri1 1 + devclrn $end
$var tri1 1 , devpor $end
$var tri1 1 - devoe $end
$var wire 1 . ~QUARTUS_CREATED_GND~I_combout $end
$var wire 1 / clk~input_o $end
$var wire 1 0 clk~inputCLKENA0_outclk $end
$var wire 1 1 low_reset~input_o $end
$var wire 1 2 out~0_combout $end
$var wire 1 3 enable~input_o $end
$var wire 1 4 out[0]~1_combout $end
$var wire 1 5 out[0]~reg0_q $end
$var wire 1 6 out~2_combout $end
$var wire 1 7 out[1]~reg0_q $end
$var wire 1 8 out~3_combout $end
$var wire 1 9 out[2]~reg0_q $end
$var wire 1 : out~4_combout $end
$var wire 1 ; out[3]~reg0_q $end
$upscope $end
$upscope $end
$enddefinitions $end
#0
$dumpvars
0!
0"
1#
0'
0&
0%
0$
0(
1)
x*
1+
1,
1-
0.
0/
00
11
12
03
04
05
06
07
08
09
0:
0;
$end
#25000
1!
1/
10
#50000
1"
0!
13
0/
00
14
#75000
1!
1/
10
15
1'
16
02
#100000
0"
0!
03
0/
00
04
#125000
1!
1/
10
#150000
1"
0!
13
0/
00
14
#175000
1!
1/
10
17
05
0'
1&
12
#200000
0"
0!
03
0/
00
04
#225000
1!
1/
10
#250000
1"
0!
13
0/
00
14
#275000
1!
1/
10
15
1'
18
06
02
#300000
0"
0!
03
0/
00
04
#325000
1!
1/
10
#350000
1"
0!
13
0/
00
14
#375000
1!
1/
10
19
07
05
0'
0&
1%
12
#400000
0"
0!
03
0/
00
04
#425000
1!
1/
10
#450000
1"
0!
13
0/
00
14
#475000
1!
1/
10
15
1'
16
02
#500000
0"
0!
03
0/
00
04
#525000
1!
1/
10
#550000
1"
0!
13
0/
00
14
#575000
1!
1/
10
17
05
0'
1&
12
#600000
0"
0!
03
0/
00
04
#625000
1!
1/
10
#650000
1"
0!
13
0/
00
14
#675000
1!
1/
10
15
1'
1:
08
06
02
#700000
0#
0"
0!
01
03
0/
00
0:
#725000
1!
1/
10
09
07
05
0'
0&
0%
#750000
1"
0!
13
0/
00
#775000
1!
1/
10
#800000
0"
0!
03
0/
00
#825000
1!
1/
10
#850000
1#
1"
0!
11
13
0/
00
12
#875000
1!
1/
10
15
1'
16
02
#900000
0"
0!
03
0/
00
04
#925000
1!
1/
10
#950000
1"
0!
13
0/
00
14
#975000
1!
1/
10
17
05
0'
1&
12
