Year-3/3tb4/lab2/tut/simulation/qsim/tut2.msim.vcd
$comment
	File created using the following command:
		vcd file tut2.msim.vcd -direction
$end
$date
	Thu Feb 09 14:02:51 2023
$end
$version
	ModelSim Version 10.5b
$end
$timescale
	1ps
$end

$scope module clock_divider_vlg_vec_tst $end
$var reg 1 ! Reset_n $end
$var reg 1 " clk $end
$var wire 1 # clk_ms $end

$scope module i1 $end
$var wire 1 $ gnd $end
$var wire 1 % vcc $end
$var wire 1 & unknown $end
$var tri1 1 ' devclrn $end
$var tri1 1 ( devpor $end
$var tri1 1 ) devoe $end
$var wire 1 * ~QUARTUS_CREATED_GND~I_combout $end
$var wire 1 + clk~input_o $end
$var wire 1 , clk~inputCLKENA0_outclk $end
$var wire 1 - Add0~125_sumout $end
$var wire 1 . Reset_n~input_o $end
$var wire 1 / countQ~5_combout $end
$var wire 1 0 Add0~38 $end
$var wire 1 1 Add0~33_sumout $end
$var wire 1 2 Add0~34 $end
$var wire 1 3 Add0~29_sumout $end
$var wire 1 4 Add0~30 $end
$var wire 1 5 Add0~73_sumout $end
$var wire 1 6 Add0~74 $end
$var wire 1 7 Add0~69_sumout $end
$var wire 1 8 Add0~70 $end
$var wire 1 9 Add0~65_sumout $end
$var wire 1 : Add0~66 $end
$var wire 1 ; Add0~61_sumout $end
$var wire 1 < countQ[17]~DUPLICATE_q $end
$var wire 1 = Add0~62 $end
$var wire 1 > Add0~57_sumout $end
$var wire 1 ? Add0~58 $end
$var wire 1 @ Add0~53_sumout $end
$var wire 1 A Add0~54 $end
$var wire 1 B Add0~121_sumout $end
$var wire 1 C Add0~122 $end
$var wire 1 D Add0~117_sumout $end
$var wire 1 E Add0~118 $end
$var wire 1 F Add0~113_sumout $end
$var wire 1 G countQ[22]~DUPLICATE_q $end
$var wire 1 H Add0~114 $end
$var wire 1 I Add0~109_sumout $end
$var wire 1 J Add0~110 $end
$var wire 1 K Add0~105_sumout $end
$var wire 1 L Add0~106 $end
$var wire 1 M Add0~101_sumout $end
$var wire 1 N Add0~102 $end
$var wire 1 O Add0~97_sumout $end
$var wire 1 P Add0~98 $end
$var wire 1 Q Add0~93_sumout $end
$var wire 1 R Add0~94 $end
$var wire 1 S Add0~89_sumout $end
$var wire 1 T Add0~90 $end
$var wire 1 U Add0~85_sumout $end
$var wire 1 V Add0~86 $end
$var wire 1 W Add0~81_sumout $end
$var wire 1 X Add0~82 $end
$var wire 1 Y Add0~77_sumout $end
$var wire 1 Z countQ~3_combout $end
$var wire 1 [ countQ~2_combout $end
$var wire 1 \ countQ~4_combout $end
$var wire 1 ] countQ[2]~DUPLICATE_q $end
$var wire 1 ^ countQ~0_combout $end
$var wire 1 _ countQ~6_combout $end
$var wire 1 ` Add0~126 $end
$var wire 1 a Add0~1_sumout $end
$var wire 1 b Add0~2 $end
$var wire 1 c Add0~25_sumout $end
$var wire 1 d Add0~26 $end
$var wire 1 e Add0~21_sumout $end
$var wire 1 f Add0~22 $end
$var wire 1 g Add0~17_sumout $end
$var wire 1 h Add0~18 $end
$var wire 1 i Add0~13_sumout $end
$var wire 1 j Add0~14 $end
$var wire 1 k Add0~9_sumout $end
$var wire 1 l Add0~10 $end
$var wire 1 m Add0~5_sumout $end
$var wire 1 n Add0~6 $end
$var wire 1 o Add0~49_sumout $end
$var wire 1 p Add0~50 $end
$var wire 1 q Add0~45_sumout $end
$var wire 1 r Add0~46 $end
$var wire 1 s Add0~41_sumout $end
$var wire 1 t Add0~42 $end
$var wire 1 u Add0~37_sumout $end
$var wire 1 v countQ~1_combout $end
$var wire 1 w LessThan0~0_combout $end
$var wire 1 x clk_ms~reg0_q $end
$var wire 1 y countQ [31] $end
$var wire 1 z countQ [30] $end
$var wire 1 { countQ [29] $end
$var wire 1 | countQ [28] $end
$var wire 1 } countQ [27] $end
$var wire 1 ~ countQ [26] $end
$var wire 1 !! countQ [25] $end
$var wire 1 "! countQ [24] $end
$var wire 1 #! countQ [23] $end
$var wire 1 $! countQ [22] $end
$var wire 1 %! countQ [21] $end
$var wire 1 &! countQ [20] $end
$var wire 1 '! countQ [19] $end
$var wire 1 (! countQ [18] $end
$var wire 1 )! countQ [17] $end
$var wire 1 *! countQ [16] $end
$var wire 1 +! countQ [15] $end
$var wire 1 ,! countQ [14] $end
$var wire 1 -! countQ [13] $end
$var wire 1 .! countQ [12] $end
$var wire 1 /! countQ [11] $end
$var wire 1 0! countQ [10] $end
$var wire 1 1! countQ [9] $end
$var wire 1 2! countQ [8] $end
$var wire 1 3! countQ [7] $end
$var wire 1 4! countQ [6] $end
$var wire 1 5! countQ [5] $end
$var wire 1 6! countQ [4] $end
$var wire 1 7! countQ [3] $end
$var wire 1 8! countQ [2] $end
$var wire 1 9! countQ [1] $end
$var wire 1 :! countQ [0] $end
$upscope $end
$upscope $end
$enddefinitions $end
#0
$dumpvars
0!
0"
0#
0$
1%
x&
1'
1(
1)
0*
0+
0,
1-
0.
0/
00
01
02
03
04
05
06
07
08
09
0:
0;
0<
0=
0>
0?
0@
0A
0B
0C
0D
0E
0F
0G
0H
0I
0J
0K
0L
0M
0N
0O
0P
0Q
0R
0S
0T
0U
0V
0W
0X
0Y
1Z
1[
1\
0]
1^
0_
0`
0a
0b
0c
0d
0e
0f
0g
0h
0i
0j
0k
0l
0m
0n
0o
0p
0q
0r
0s
0t
0u
1v
1w
0x
0:!
09!
08!
07!
06!
05!
04!
03!
02!
01!
00!
0/!
0.!
0-!
0,!
0+!
0*!
0)!
0(!
0'!
0&!
0%!
0$!
0#!
0"!
0!!
0~
0}
0|
0{
0z
0y
$end
#12500
1"
1+
1,
#25000
0"
0+
0,
#37500
1"
1+
1,
#50000
0"
0+
0,
#62500
1"
1+
1,
#75000
0"
0+
0,
#87500
1"
1+
1,
#100000
0"
0+
0,
#112500
1"
1+
1,
#125000
0"
0+
0,
#137500
1"
1+
1,
#150000
0"
0+
0,
#160000
1!
1.
#162500
1"
1+
1,
1:!
1x
1#
1`
0-
1a
#175000
0"
0+
0,
#187500
1"
1+
1,
19!
0:!
0`
1b
1-
0w
0a
0b
1a
1c
0c
#200000
0"
0+
0,
#212500
1"
1+
1,
1:!
0x
0#
1/
1`
0-
1b
1_
0a
1c
#225000
0"
0+
0,
#237500
1"
1+
1,
09!
0:!
0/
0`
0b
1-
1w
1a
0_
0a
0c
#250000
0"
0+
0,
#262500
1"
1+
1,
1:!
1x
1#
1`
0-
1a
#275000
0"
0+
0,
#287500
1"
1+
1,
19!
0:!
0`
1b
1-
0w
0a
0b
1a
1c
0c
#300000
0"
0+
0,
#312500
1"
1+
1,
1:!
0x
0#
1/
1`
0-
1b
1_
0a
1c
#325000
0"
0+
0,
#337500
1"
1+
1,
09!
0:!
0/
0`
0b
1-
1w
1a
0_
0a
0c
#350000
0"
0+
0,
#362500
1"
1+
1,
1:!
1x
1#
1`
0-
1a
#375000
0"
0+
0,
#387500
1"
1+
1,
19!
0:!
0`
1b
1-
0w
0a
0b
1a
1c
0c
#400000
0"
0+
0,
#412500
1"
1+
1,
1:!
0x
0#
1/
1`
0-
1b
1_
0a
1c
#425000
0"
0+
0,
#437500
1"
1+
1,
09!
0:!
0/
0`
0b
1-
1w
1a
0_
0a
0c
#450000
0"
0+
0,
#462500
1"
1+
1,
1:!
1x
1#
1`
0-
1a
#475000
0"
0+
0,
#487500
1"
1+
1,
19!
0:!
0`
1b
1-
0w
0a
0b
1a
1c
0c
#500000
0"
0+
0,
#512500
1"
1+
1,
1:!
0x
0#
1/
1`
0-
1b
1_
0a
1c
#525000
0"
0+
0,
#537500
1"
1+
1,
09!
0:!
0/
0`
0b
1-
1w
1a
0_
0a
0c
#550000
0"
0+
0,
#562500
1"
1+
1,
1:!
1x
1#
1`
0-
1a
#575000
0"
0+
0,
#587500
1"
1+
1,
19!
0:!
0`
1b
1-
0w
0a
0b
1a
1c
0c
#600000
0"
0+
0,
#612500
1"
1+
1,
1:!
0x
0#
1/
1`
0-
1b
1_
0a
1c
#625000
0"
0+
0,
#637500
1"
1+
1,
09!
0:!
0/
0`
0b
1-
1w
1a
0_
0a
0c
#650000
0"
0+
0,
#662500
1"
1+
1,
1:!
1x
1#
1`
0-
1a
#675000
0"
0+
0,
#687500
1"
1+
1,
19!
0:!
0`
1b
1-
0w
0a
0b
1a
1c
0c
#700000
0"
0+
0,
#712500
1"
1+
1,
1:!
0x
0#
1/
1`
0-
1b
1_
0a
1c
#725000
0"
0+
0,
#737500
1"
1+
1,
09!
0:!
0/
0`
0b
1-
1w
1a
0_
0a
0c
#750000
0"
0+
0,
#762500
1"
1+
1,
1:!
1x
1#
1`
0-
1a
#775000
0"
0+
0,
#787500
1"
1+
1,
19!
0:!
0`
1b
1-
0w
0a
0b
1a
1c
0c
#800000
0"
0+
0,
#812500
1"
1+
1,
1:!
0x
0#
1/
1`
0-
1b
1_
0a
1c
#825000
0"
0+
0,
#837500
1"
1+
1,
09!
0:!
0/
0`
0b
1-
1w
1a
0_
0a
0c
#850000
0"
0+
0,
#862500
1"
1+
1,
1:!
1x
1#
1`
0-
1a
#875000
0"
0+
0,
#887500
1"
1+
1,
19!
0:!
0`
1b
1-
0w
0a
0b
1a
1c
0c
#900000
0"
0+
0,
#912500
1"
1+
1,
1:!
0x
0#
1/
1`
0-
1b
1_
0a
1c
#925000
0"
0+
0,
#937500
1"
1+
1,
09!
0:!
0/
0`
0b
1-
1w
1a
0_
0a
0c
#950000
0"
0+
0,
#962500
1"
1+
1,
1:!
1x
1#
1`
0-
1a
#975000
0"
0+
0,
#987500
1"
1+
1,
19!
0:!
0`
1b
1-
0w
0a
0b
1a
1c
0c
